<?xml version="1.0" encoding="UTF-8"?>
<svg width="99px" height="99px" viewBox="0 0 99 99" version="1.1" xmlns="http://www.w3.org/2000/svg" xmlns:xlink="http://www.w3.org/1999/xlink">
    <!-- Generator: sketchtool 53.2 (72643) - https://sketchapp.com -->
    <title>BDD832E7-D9D0-438F-96C3-D73BBE9E163D</title>
    <desc>Created with sketchtool.</desc>
    <g id="Elements" stroke="none" stroke-width="1" fill="none" fill-rule="evenodd">
        <g id="Icons" transform="translate(-898.000000, -646.000000)" stroke="#011E41" stroke-width="3">
            <g id="ICO-/-Product-Manual" transform="translate(898.000000, 646.000000)">
                <circle id="Oval" cx="49.5" cy="49.5" r="48"></circle>
                <g id="manual-icon" transform="translate(32.000000, 26.000000)">
                    <path d="M36,48 L6,48 C0,48 0,41.7388048 0,41.7388048 L0,6.26122222 C0,0 3.9996,2.70043185e-05 3.9996,2.70043185e-05 L31.1724,2.70043185e-05 C31.9194538,-0.00332601359 32.6371418,0.305690862 33.1674152,0.859026034 C33.6976886,1.41236121 33.9970593,2.16463541 33.9996,2.95018307 L33.9996,38.6082072 C33.9996,38.6082072 30.9996,38.6082072 30.9996,43.9268162 C30.9996,43.9268162 32.0004,48 33.9996,48" id="Path"></path>
                    <path d="M34,38 L4.66676186,38 C4.66676186,38 0,38 0,43" id="Path"></path>
                    <path d="M25.4103387,1 L25.4103387,39 M11.9318614,23.2807941 L20.7767804,23.2807941 M8,30.4575311 L21.7603355,30.4575311" id="Shape"></path>
                </g>
            </g>
        </g>
    </g>
</svg>